{
	"name": "Existing Dockerfile",
	"context": "..",
	"dockerFile": "../swaxs/Dockerfile",
	"runArgs": [
		// "--gpus", "all",
		"-e", "DISPLAY=${env:DISPLAY}", "-v", "/tmp/.X11-unix:/tmp/.X11-unix",
		"--cap-add=SYS_PTRACE", "--security-opt", "seccomp=unconfined"
	],
	"customizations": {
		"vscode": {
			"extensions": [
				"ms-python.python",
				"ms-vscode.cmake-tools",
				"fredericbonnet.cmake-test-adapter",
				"twxs.cmake",
				"ms-vscode.cpptools"
			]
		}
	}
}
